"","from_id","from_name","message","created_time","type","link","id","story","likes_count","comments_count","shares_count"
"1","74865038590","HC Strache","Hier mein heutiges Interview in der ZIB 2 zum Nachschauen:","2016-10-24T21:39:49+0000","video","https://www.facebook.com/HCStrache/videos/10154306008968591/","74865038590_10154306008968591",NA,2073,371,843
"2","74865038590","HC Strache","Die ganze EU ist von CETA besessen... Die ganze EU? Nein! Eine von unbeugsamen Wallonen bevölkerte europäische Region hört nicht auf, dem undemokratischen Vorgehen Widerstand zu leisten.

Sie wollen dem CETA-Freihandelsabkommen so nicht zustimmen. Das von der EU gesetzte Ultimatum weisen sie als demokratiefeindlich zurück. Wallonien wolle ein Abkommen, aber es müsse mit einem Minimum an Respekt verhandelt werden, das riesige Misch-Masch an Texten sei im Moment einfach kein seriöses internationales Recht.

Und die Wallonen bekommen Verstärkung: Die Regionalregierung von Brüssel bestätigte heute, dass auch sie nicht für das CETA-Abkommen stimmen könne.

Im Gegensatz zur österreichischen Bundesregierung scheint es noch Politiker in Europa zu geben, die sich für ihr Volk und für das Recht einsetzen. Hut ab vor den Kollegen in Belgien und: standhaft bleiben! 

CETA beinhaltet, ähnlich wie TTIP, eine Reihe von Punkten, die unter demokratischen und rechtsstaatlichen Prinzipen abzulehnen sind. Die #FPÖ und #HCStrache begrüßen daher ausdrücklich den Widerstand der Wallonie. Das Recht hat vom Volk auszugehen und nicht von globalen Banken und Konzernen.","2016-10-24T18:05:25+0000","photo","https://www.facebook.com/HCStrache/photos/a.226243068590.133860.74865038590/10154304962763591/?type=3","74865038590_10154304962763591",NA,2721,132,851
"3","74865038590","HC Strache","Ich bin heute live ab 22:40 Uhr in der ZIB2 auf ORF2. Schaltet ein und seid dabei!","2016-10-24T17:02:01+0000","photo","https://www.facebook.com/HCStrache/photos/a.226243068590.133860.74865038590/10154305061238591/?type=3","74865038590_10154305061238591",NA,403,50,55
"4","74865038590","HC Strache","Hier die besten Ausschnitte meiner heutigen Rede anlässlich des bevorstehenden Nationalfeiertags. Der heutige Festakt stand unter dem wichtigen Motto „Das Recht geht vom Volk aus“. Denn nur ein Staat, der wirklich souverän ist, kann seine Unabhängigkeit bewahren und sich die Freiheit nehmen, neutral zu bleiben.","2016-10-24T16:27:28+0000","video","https://www.facebook.com/HCStrache/videos/10154305333623591/","74865038590_10154305333623591",NA,1071,76,242
"5","74865038590","HC Strache","Wir müssen AUFWACHEN!

Der ORF-Journalist Fritz Orter warnt zu Recht in seinem aktuellen Buch. Und ja, ich pflichte Herrn Orter bei.

Europa ist im Fokus islamistischer Terroristen. Mit der Völkerwanderung drohen auch in Europa Religions- und Bürgerkriege zwischen Muslimen und Nicht-Muslimen. Die Mehrheitsgesellschaft in Europa ist in Gefahr. Es entstehen Parallelgesellschaften. Solidarität und Toleranz schwinden. Radikalisierung wird zum Alltag. Das Projekt Multikulti samt Gutmenschentum ist zum Scheitern verurteilt. 

Wir müssen daher alles menschenmögliche unternehmen, um diese gefährliche und falsche Entwicklung in Europa zu stoppen und zukünftige Konflikte zu vermeiden!","2016-10-24T15:20:30+0000","link","https://www.fischundfleisch.com/herbert/fritz-orter-wir-muessen-aufwachen-26971","74865038590_10154304742583591",NA,2447,129,1048
"6","74865038590","HC Strache","Die FPÖ weist die Kritik der Evangelischen Kirchen am Gottesbezug in der Wahlkampagne von FPÖ-Bundespräsidentschaftskandidat Norbert Hofer zurück. „Die Verwendung des Zusatzes zur Gelöbnisformel des Amtseids ‚So wahr mir Gott helfe‘ auch auf dem Plakat ist alles andere als ein Missbrauch des Begriffs Gottes“, erklärte FPÖ-Generalsekretär und Hofer-Wahlkampfleiter Herbert Kickl in einer Aussendung.

Genauso wenig wie der Begriff Gott missbraucht werde, wenn man jemanden mit den Worten „Grüß Gott“ begrüßt, wenn jemand sich mit „Gott sei Dank“ bedankt oder jemand die Worte „Um Gottes Willen“ ausspricht, so Kickl. Der Begriff Gott sei tief „in unserer Tradition und im Wertegefüge unserer Leitkultur“ verankert. Vorwürfe einer unpassenden oder unangebrachten Verwendung gingen daher ins Leere, so Kickl.

http://religion.orf.at/stories/2804793/","2016-10-24T15:11:22+0000","link","http://religion.orf.at/stories/2804793/","74865038590_10154305115838591",NA,465,224,50
"7","74865038590","HC Strache","Vielen Dank für 430.000 ""Gefällt mir"" :-)
Ihr seid spitze!","2016-10-24T14:50:42+0000","photo","https://www.facebook.com/HCStrache/photos/a.226243068590.133860.74865038590/10154304980368591/?type=3","74865038590_10154304980368591",NA,3376,59,60
"8","74865038590","HC Strache",NA,"2016-10-24T14:00:13+0000","link","http://www.krone.at/oesterreich/merkel-ist-die-gefaehrlichste-politikerin-europas-strache-poltert-story-535873","74865038590_10154304921198591","HC Strache shared a link.",5559,278,1455
"9","74865038590","HC Strache","Heutige FPÖ-Festveranstaltung zum bevorstehenden Nationalfeiertag im Palais Epstein unter dem Motto: Das Recht geht vom Volk aus!","2016-10-24T13:03:48+0000","photo","https://www.facebook.com/HCStrache/photos/a.10151682670073591.1073741834.74865038590/10154304808058591/?type=3","74865038590_10154304808168591","HC Strache added 4 new photos.",945,18,43
"10","74865038590","HC Strache","Souveränität und Neutralität sind Zwillingsschwestern.

„Nur ein Staat, der wirklich souverän ist, kann seine Unabhängigkeit bewahren und sich die Freiheit nehmen, neutral zu bleiben. Neutralität ohne Souveränität ist nicht denkbar“, betonte HC Strache in seiner heutigen Rede zum bevorstehenden Nationalfeiertag.","2016-10-24T12:13:34+0000","link","http://www.fpoe.at/artikel/hc-strache-zum-nationalfeiertag-das-recht-geht-vom-volk-aus/","74865038590_10154304724323591",NA,1239,52,138
"11","74865038590","HC Strache","Das Recht geht vom Volk aus!

Video (3. Teil): Rede von HC Strache zum Nationalfeiertag","2016-10-24T09:12:16+0000","video","https://www.facebook.com/HCStrache/videos/10154304412858591/","74865038590_10154304412858591","HC Strache was live.",2044,967,383
"12","74865038590","HC Strache","Das Recht geht vom Volk aus!

Video (2. Teil): Rede von HC Strache zum Nationalfeiertag","2016-10-24T08:52:04+0000","video","https://www.facebook.com/HCStrache/videos/10154304386988591/","74865038590_10154304386988591","HC Strache was live.",2131,1112,593
"13","74865038590","HC Strache","Das Recht geht vom Volk aus!

Video (1. Teil): Rede von HC Strache zum Nationalfeiertag","2016-10-24T08:33:42+0000","video","https://www.facebook.com/HCStrache/videos/10154304357328591/","74865038590_10154304357328591","HC Strache was live.",1084,753,273
"14","74865038590","HC Strache","Müssen wir jetzt bereits die christlichen Begriffe unserer Leitkultur rechtfertigen?

Gott hat in unserem Staatswesen und allem, was dazugehört, durchaus seinen Platz:

Hier der Beginn der Landeshymne des Burgenlands: „Mein Heimatvolk, mein Heimatland, mit Österreich verbunden! Auf Dir ruht Gottes Vaterhand, Du hast sie oft empfunden.“

Nach Art. 62 des österreichischen Bundes-Verfassungsgesetzes leistet der Bundespräsident bei Antritt seines Amtes vor der Bundesversammlung folgendes Gelöbnis[44]:

„Ich gelobe, dass ich die Verfassung und alle Gesetze der Republik getreulich beobachten und meine Pflicht nach bestem Wissen und Gewissen erfüllen werde.“

Nach Art. 62 Abs. 2 B-VG ist die Beifügung einer religiösen Beteuerung zulässig. ""So wahr mir Gott helfe""! 

Norbert Hofer wird wie SP-Bundespräsident Kirchschläger und andere zuvor diese Beifügung mit Überzeugung und Selbstverständlichkeit leisten. Van der Bellen lehnt diesen Gelöbniszusatz kategorisch ab. Er will mit dem Christentum und einem europäischen Abendland offensichtlich nichts zu tun haben.                      

Eigentlich absurd, wenn sich plötzlich Stimmen erheben, die nichts von Gott hören wollen. Wer Allah preist, wird von ebenjenen Menschen sicher mit einem „Gut“-Stempel auf der Stirn ausgestattet und herzlichst umarmt. Ja, unseren Korrektheitsmullahs, den selbsternannten Richtern über Gut und Böse, gefällt es sehr gut, wenn jemand über Gott schimpft, weil ja die Kirchen böse sind und Gott eine Erfindung. Wer über die Kirche schimpft und noch einen sarkastischen Witz über Gott oder den Glauben an ihn absondert, ist in der Welt dieser Leute ein Held. Wer das Wort Gott überhaupt nur im Mund führt, wird sofort mit dem Moralscanner durchleuchtet: Gott? Wehe, wenn das nicht tolerant klingt! 

Die Gedankenpolizei ist also wieder einmal unterwegs. Lasst euch nicht einsperren! Das ist ein Kampf von uns allen gegen eine Waffe der Mächtigen, ein Kampf gegen die Meinungsmanipulation durch Tugendwächter! Das müssen wir uns bewusst machen, und wir müssen es anderen bewusst machen!

Irgendwie bin ich froh, dass jetzt diese heuchlerische Empörungswelle durch das Land geschwappt ist. Jetzt sehen mehr und mehr Menschen, dass es am 4. Dezember nicht nur um einen neuen Bundespräsidenten, sondern um unsere Identität und unser christliches Abendland geht!

Wir müssen aufwachen! Van Der Bellen will, dass wir uns in einem zentralistischen bundesstaatlichen Einheitseuropa auflösen! Das unser Österreich als souveräner Staat und seine Neutralität abgeschafft wird und aufhören zu existieren.

Norbert Hofer will und wird dagegen für unsere Identität kämpfen, damit wir bleiben, was wir sind: ein eigenwilliges, humorvolles, liebenswertes Volk und ein souveränes Land im Herzen Europas mit einer langen, besonderen Geschichte, Werten und Tradition. Darum geht es am 4. Dezember: Wir wollen nicht länger zusehen, wie unsere Wurzeln durch eine abgehobene Bande aus Brüsseler Apparatschiks und heimischen Moralterroristen zubetoniert werden!

Euer HC","2016-10-24T06:45:55+0000","status",NA,"74865038590_10154302757733591",NA,732,107,120
